{
    "responseId": "b5c46a43-db96-4e88-a735-93f6b609e5d5-eff3b2e4",
    "queryResult": {
        "queryText": "ทดสอบ",
        "parameters": {
        },
        "allRequiredParamsPresent": true,
        "outputContexts": [{
            "name": "projects/covid-19-bot-ydli/agent/sessions/a9697fb8-7edc-3932-ab7b-3662eb98e918/contexts/__system_counters__",
            "parameters": {
                "no-input": 0.0,
                "no-match": 0.0
            }
        }],
        "intent": {
            "name": "projects/covid-19-bot-ydli/agent/intents/c76f36e0-087b-473b-bcab-362eb9bc3450",
            "displayName": "test webhook"
        },
        "intentDetectionConfidence": 1.0,
        "languageCode": "th"
    },
    "originalDetectIntentRequest": {
        "source": "line",
        "payload": {
            "data": {
                "message": {
                    "type": "text",
                    "text": "ทดสอบ",
                    "id": "13985480356690"
                },
                "timestamp": "1619968814951",
                "source": {
                    "userId": "U447842b46a87f9b5f1ed8efb9766be11",
                    "type": "user"
                },
                "type": "message",
                "replyToken": "e74a33eb240e42139551fdf8dd570131"
            }
        }
    },
    "session": "projects/covid-19-bot-ydli/agent/sessions/a9697fb8-7edc-3932-ab7b-3662eb98e918"
  }
  