
{
    "type": "bubble",
    "body": {
        "type": "box",
        "layout": "vertical",
            "contents": [
                {
                    "type": "text",
                    "text": "รายงานยอดผู้ติดเชื้อ COVID-19",
                    "weight": "bold",
                    "size": "lg",
                    "margin": "xs"
                },
                {
                    "type": "separator",
                    "margin": "sm"
                },
                {
                    "type": "box",
                    "layout": "vertical",
                    "margin": "xxl",
                    "spacing": "sm",
                    "contents": [
                        {
                            "type": "box",
                            "layout": "horizontal",
                            "contents": [
                                {
                                    "type": "text",
                                    "size": "md",
                                    "color": "#205CE9",
                                    "flex": 0,
                                    "text": "ยอดผู้ติดเชื้อ",
                                    "margin": "none",
                                    "weight": "bold",
                                    "decoration": "none"
                                },
                                {
                                    "type": "text",
                                    "text": "40,000 คน",
                                    "size": "sm",
                                    "color": "#09225d",
                                    "align": "end"
                                }
                            ]
                        },
                        {
                            "type": "box",
                            "layout": "horizontal",
                            "contents": [
                                {
                                    "type": "text",
                                    "text": "รักษาหายแล้ว",
                                    "size": "md",
                                    "color": "#00A9A5",
                                    "flex": 0,
                                    "weight": "bold"
                                },
                                {
                                    "type": "text",
                                    "text": "28,400 คน (+300)",
                                    "size": "sm",
                                    "color": "#111111",
                                    "align": "end"
                                }
                            ]
                        },
                        {
                            "type": "box",
                            "layout": "horizontal",
                            "contents": [
                                {
                                    "type": "text",
                                    "text": "กำลังรักษา",
                                    "size": "md",
                                    "color": "#f18f01",
                                    "flex": 0,
                                    "weight": "bold"
                                },
                                {
                                    "type": "text",
                                    "text": "11,600 คน",
                                    "size": "sm",
                                    "color": "#111111",
                                    "align": "end"
                                }
                            ]
                        },
                        {
                            "type": "box",
                            "layout": "horizontal",
                            "margin": "sm",
                            "contents": [
                                {
                                    "type": "text",
                                    "text": "ผู้เสียชีวิต",
                                    "size": "md",
                                    "color": "#BB0A21",
                                    "weight": "bold",
                                    "flex": 9
                                },
                                {
                                    "type": "text",
                                    "text": "21",
                                    "size": "md",
                                    "color": "#bb0a21",
                                    "align": "end"
                                }
                            ]
                        }
                    ]
                },
                {
                    "type": "separator",
                    "margin": "xxl"
                },
                {
                    "type": "text",
                    "text": "วันที่ 01/05/2021",
                    "size": "xs",
                    "color": "#aaaaaa",
                    "wrap": true,
                    "margin": "md"
                }
            ],
        "backgroundColor": "#ffffff"
    },
    "styles": {
        "body": {
            "backgroundColor": "#F0EDEE"
        },
        "footer": {
            "separator": false
        }
    }
}